WEIGHTS : 0.3231441048034934 0.06986899563318777 0.2838427947598253 0.013100436681222707 0.31004366812227074
BOUNDARY : 2
[0, 91] [5, 95] [4, 93] [15, 92] [26, 54] 
[32, 81] [34, 37] [47, 52] [47, 54] [29, 49] 
LAMBDA : 0.4740888494497274
ADMISSION : 1 1 2 2 0 0 1 2 2 0 0 1 0 1 1 2 2 2 2 1 0 0 0 2 2 2 1 2 2 0 0 2 0 0 0 2 0 1 0 2 0 2 2 1 1 2 2 1 0 2 0 2 2 0 0 0 2 0 1 2 0 2 1 1 2 2 2 2 2 2 0 0 0 1 2 2 0 1 0 2 1 0 0 1 1 0 0 1 0 1 0 0 2 0 0 0 2 1 2 1 2 0 0 1 2 1 0 0 0 0 1 0 2 0 0 0 2 0 2 0 2 1 1 2 0 2 0 2 2 2 2 0 2 0 2 2 0 0 2 0 2 0 1 0 0 0 1 0 2 1 1 0 1 0 0 0 0 2 2 2 1 1 0 0 2 2 2 0 2 0 2 1 0 0 1 0 2 1 2 2 0 0 1 2 1 0 2 2 0 1 0 2 2 1 0 0 2 2 0 2
9 57 35 24 72 
85 30 52 14 34 
0 74 37 16 40 
47 87 69 57 11 
43 16 34 88 96 
22 56 20 46 99 
43 91 16 28 20 
4 9 85 29 86 
74 86 62 7 28 
51 22 62 21 43 
38 83 15 13 47 
67 50 89 27 15 
79 63 18 72 88 
54 9 48 90 9 
46 96 3 52 11 
37 79 63 87 15 
44 90 4 7 71 
42 72 80 46 87 
90 43 32 5 83 
53 36 80 13 26 
61 28 32 6 53 
89 28 78 81 61 
38 12 79 33 28 
43 62 9 30 99 
94 80 20 10 65 
57 23 6 76 93 
91 30 1 65 66 
51 56 20 34 51 
19 64 29 4 26 
77 19 34 66 54 
89 51 13 38 62 
53 67 62 56 20 
23 42 57 7 26 
70 17 67 93 62 
70 1 61 54 23 
84 33 40 73 78 
75 28 22 45 12 
44 9 96 40 6 
35 88 73 92 88 
78 50 19 44 63 
17 13 43 55 83 
90 43 60 66 40 
25 67 94 73 69 
95 47 41 28 99 
29 90 97 96 12 
71 66 30 77 92 
47 83 31 85 1 
92 28 95 76 57 
43 63 56 70 81 
13 19 20 84 49 
17 7 93 92 51 
76 37 6 74 10 
71 87 75 1 25 
70 12 17 24 45 
25 99 90 35 82 
38 73 52 7 29 
75 3 96 37 92 
3 48 92 17 57 
22 18 21 46 34 
67 98 17 84 81 
16 91 10 23 31 
99 19 87 30 66 
18 39 1 24 71 
57 47 90 64 46 
38 74 91 2 79 
43 85 94 42 10 
5 80 27 43 78 
25 1 83 55 82 
27 68 77 8 65 
4 50 77 64 89 
90 97 61 5 49 
15 51 33 90 20 
29 97 36 37 18 
39 20 49 23 85 
20 38 25 49 24 
60 82 76 19 64 
42 42 30 21 12 
99 5 47 93 23 
45 84 20 93 28 
49 52 27 3 84 
44 47 88 77 72 
74 48 18 9 63 
39 6 25 60 98 
84 25 64 40 6 
97 39 25 84 21 
91 45 8 98 21 
13 75 61 6 16 
58 69 91 14 38 
87 64 67 83 77 
98 57 30 79 93 
1 75 64 34 54 
64 12 33 40 3 
89 68 73 71 69 
2 49 51 95 25 
25 80 59 81 59 
5 24 23 98 14 
21 28 62 56 75 
38 71 7 14 35 
58 19 45 59 62 
33 33 49 37 19 
92 37 97 28 94 
78 50 54 57 53 
54 42 29 91 42 
36 76 52 91 3 
86 42 33 79 49 
9 61 47 85 95 
97 95 40 27 50 
78 12 60 56 37 
81 40 9 57 29 
37 21 41 3 51 
85 33 84 99 52 
63 56 55 57 95 
67 29 12 86 75 
80 12 82 23 50 
84 97 31 85 86 
42 33 2 67 24 
84 78 30 89 80 
85 90 18 14 31 
18 88 39 91 31 
24 66 29 13 80 
19 68 40 8 34 
98 17 38 13 65 
40 19 70 70 56 
75 21 21 61 87 
50 75 41 12 66 
75 72 21 55 23 
49 39 5 27 29 
25 7 21 56 43 
29 42 82 51 38 
84 34 53 51 41 
39 88 22 0 60 
66 14 24 74 12 
52 72 40 93 58 
33 78 43 17 34 
57 31 79 12 62 
55 74 0 19 78 
44 81 9 72 13 
96 42 19 25 49 
90 50 29 94 62 
41 25 73 97 57 
85 47 49 59 74 
15 44 43 13 55 
65 3 93 77 45 
38 99 96 70 37 
49 55 40 46 97 
62 93 44 49 45 
79 39 94 28 97 
87 13 60 2 27 
66 72 58 82 22 
92 87 10 78 88 
93 29 51 29 58 
52 23 13 4 4 
34 87 61 93 81 
82 17 8 75 21 
18 46 50 59 17 
69 50 58 40 52 
45 44 31 61 94 
89 29 94 73 3 
64 6 80 41 14 
27 69 44 8 70 
61 43 39 17 27 
92 53 47 61 86 
88 32 51 33 58 
58 46 66 60 87 
30 44 83 82 41 
38 69 3 65 72 
1 66 56 13 89 
83 13 17 46 97 
13 88 83 35 53 
30 27 80 57 40 
51 4 81 64 85 
68 71 22 39 34 
19 24 41 23 66 
75 1 25 76 28 
97 77 47 2 46 
15 8 44 38 4 
65 17 56 24 85 
56 13 51 29 35 
74 81 14 3 66 
34 29 93 20 85 
45 37 36 50 23 
49 51 18 13 76 
30 51 48 13 49 
51 69 2 77 84 
86 98 94 53 99 
49 3 1 76 78 
7 36 44 97 68 
29 95 40 97 31 
66 60 85 15 51 
40 95 96 78 6 
82 22 51 30 22 
68 53 61 25 97 
37 79 74 79 89 
60 82 54 46 48 
85 41 72 75 69 
52 41 86 87 99 
34 70 65 31 27 
86 23 13 26 24 
66 96 38 63 34 
5 24 57 24 64 
