WEIGHTS : 0.1318181818181818 0.2636363636363636 0.10454545454545454 0.11818181818181818 0.2818181818181818 0.1
BOUNDARY : 2
12 7 9 10 7 9 
18 17 13 18 19 10 
LAMBDA : 0.55
ADMISSION : 0 0 1 1 1 1 0 1 1 1 1 0 0 1 1 0 1 1 1 0 0 0 0 1 0 1 1 1 0 0 1 1 1 0 1 0 0 1 0 1 0 0 0 0 0 0 0 1 1 1 1 1 0 0 0 0 0 1 1 1 0 0 0 0 1 1 0 0 1 1 1 0 1 1 0 1 1 0 0 0 1 0 1 1 0 1 1 0 0 0 0 1 0 0 0 1 2 0 1 0 1 1 1 0 0 1 1 1 0 1 0 0 0 0 0 0 1 0 0 0 1 0 0 0 2 0 1 0 1 1 1 1 0 0 1 0 1 0 0 0 1 0 1 1 0 0 1 1 1 0 1 0 1 1 0 0 0 1 1 0 1 1 1 0 1 0 1 0 1 0 0 0 1 1 1 1 1 0 1 0 1 0 1 1 0 1 1 0 0 1 1 0 0 0 1 1 1 1 1 0 0 1 1 0 0 1 1 0 0 0 0 0 1 0 0 1 1 0 1 0 1 1 1 1 0 1 1 1 1 1 0 0 2 1 1 1 1 0 0 1 1 0 0 1 0 1 1 1 1 0 0 0 0 0 1 1 1 1 1 0 1 1 0 0 1 1 0 0 1 1 1 0 1 1 1 1 1 1 1 0 1 1 1 1 0 1 1 0 0 0 1 0 1 1 1 1 1 1 1 0 0 0 0 1 0 1 1 1 1 0 0 1 1 1 1 0 1 0 0 1 1 1 0 0 1 0 0 0 0 0 0 0 1 1 1 1 0 1 0 1 1 1 1 0 0 1 1 0 1 0 1 0 0 1 0 0 1 0 0 1 1 0 0 0 0 1 1 1 1 0 0 1 0 1 0 1 0 0 1 1 1 1 1 1 1 1 1 2 0 0 0 1 1 1 1 1 1 1 1 1 0 1 1 1 0 1 1 1 0 0 1 0 1 0 0 1 0 0 1 0 1 1 0 0 0 1 0 0 1 0 1 1 1 1 0 0 0 0 1 1 1 0 1 1 0 0 1 1 1 1 1 1 0 1 1 1 0 0 1 1 1 1 0 1 1 2 1 0 1 1 1 1 1 2 1 1 0 1 1 0 0 0 1 1 1 1 1 0 1 0 0 1 1 0 1 1 1 0 0 1 1 1 1 1 1 1 0 1 1 1 1 0 1 0 1 1 1 1 1 1 0 1 0 1 0 0 0 0 1 1 0 1 1 1 0 1 0 1 0 1 1 0 1 0 1 0 0 1 0 0 0 0 0 2 0 1 1 1 1 0 0 1 0 1 0 1 1 1 0 1 0 1 1 1 0 1 1 1 1 0 0 1 0 1 0 1 0 1 0 1 1 1 0 1 0 0 1 1 0 0 1 1 1 1 1 0 0 1 1 1 2 1 1 1 1 0 1 1 1 0 1 1 1 0 1 0 0 0 1 1 1 1 1 1 1 1 0 0 1 1 0 0 1 1 1 1 1 1 0 1 0 1 0 1 1 1 0 0 0 0 1 0 1 1 1 1 0 1 0 0 1 2 1 0 0 1 1 1 0 0 1 0 0 1 1 1 0 0 1 1 1 0 0 1 1 0 0 0 0 0 0 0 0 0 1 1 0 0 0 0 1 0 0 0 0 0 0 1 1 0 1 1 0 1 1 1 0 1 0 0 0 1 0 1 0 2 1 0 0 1 1 0 1 1 1 0 0 0 1 1 1 1 1 2 0 1 1 0 1 0 1 1 0 1 1 1 2 1 0 0 1 0 0 0 1 0 0 1 0 0 0 0 1 0 1 0 0 1 1 0 0 0 1 1 1 0 0 1 1 0 1 1 0 1 1 0 0 1 0 1 0 0 1 0 0 0 1 0 1 1 1 1 0 1 1 0 1 0 1 0 1 0 1 0 1 1 0 1 1 0 0 1 1 1 1 0 1 1 1 0 1 0 1 1 1 1 0 1 0 1 1 1 1 0 1 0 1 0 1 0 1 0 1 0 1 0 1 1 1 0 1 1 1 0 1 1 1 2 0 0 1 1 0 1 1 0 1 1 0 1 1 1 1 0 0 0 0 0 1 0 1 1 0 0 0 0 0 0 0 0 1 1 1 1 0 1 0 0 1 1 1 0 0 1 1 1 0 0 1 1 0 1 1 2 1 0 1 0 1 0 0 1 1 1 1 1 0 1 1 2 0 0 1 0 1 1 0 1 0 1 1 1 0 1 0 1 1 1 1 0 1 1 0 1 0 1 0 0 1 1 0 1 0 1 0 1 1 0 1 0
14 4 5 3 13 6 
7 2 8 11 2 5 
13 14 12 0 3 18 
6 10 9 12 7 18 
10 12 19 17 18 10 
11 12 10 11 7 4 
5 10 17 19 4 7 
15 18 4 13 15 16 
3 17 1 9 10 12 
5 14 1 7 10 18 
14 7 18 1 5 11 
18 17 3 3 2 11 
4 3 10 6 18 6 
18 12 15 12 3 5 
15 4 14 14 16 5 
4 13 13 4 3 10 
2 18 4 12 9 2 
4 2 9 13 7 16 
5 10 10 16 2 17 
14 1 13 4 8 1 
3 3 5 12 18 0 
10 5 17 11 19 1 
17 4 6 0 19 16 
0 9 9 0 16 0 
5 7 9 11 1 3 
15 5 12 14 10 17 
18 15 2 12 18 15 
14 17 17 3 2 16 
9 17 4 17 3 16 
8 0 10 9 18 18 
0 10 12 10 1 16 
15 10 14 2 14 5 
15 14 4 12 12 8 
7 5 2 17 16 18 
12 17 9 19 4 15 
19 16 2 4 3 13 
3 4 16 8 19 7 
4 10 7 0 15 17 
13 4 7 5 13 5 
18 19 8 19 14 0 
17 16 5 9 3 19 
1 13 19 3 3 19 
11 1 3 17 18 8 
7 3 18 18 5 6 
0 0 14 1 8 12 
8 16 14 2 3 8 
8 13 17 7 6 15 
14 19 5 11 7 5 
2 10 7 10 7 16 
17 2 9 8 15 16 
19 9 18 9 17 7 
17 12 15 13 18 14 
8 16 17 13 3 1 
9 2 12 9 8 14 
7 5 6 10 6 4 
14 4 9 3 4 5 
15 8 0 6 1 13 
9 7 12 0 16 8 
6 18 3 3 10 10 
2 16 7 7 10 17 
12 18 3 13 2 5 
10 16 0 6 1 1 
6 13 16 1 4 1 
4 18 1 1 11 6 
9 16 7 14 11 3 
0 12 6 3 12 12 
8 17 4 12 3 7 
5 4 16 15 4 19 
19 18 12 0 6 11 
12 0 19 7 16 18 
10 15 7 14 17 6 
1 8 10 7 1 7 
11 13 12 8 9 2 
1 11 15 4 19 4 
14 6 8 6 8 9 
19 9 6 6 9 2 
9 9 19 15 6 12 
3 19 10 7 5 11 
1 16 12 5 5 7 
2 1 15 1 9 16 
6 7 15 0 9 3 
0 4 14 10 12 4 
17 9 1 4 11 12 
2 13 6 3 15 9 
3 2 15 9 14 19 
19 3 13 2 16 10 
0 10 12 15 4 18 
7 3 10 16 13 2 
1 0 5 10 15 8 
17 4 5 4 15 2 
5 3 14 15 14 2 
12 14 12 16 5 11 
6 4 19 7 6 4 
0 17 2 16 1 9 
9 13 13 5 0 18 
3 9 3 16 11 10 
9 18 13 2 19 17 
13 4 9 0 14 1 
16 10 12 7 5 17 
17 1 13 6 2 10 
18 13 19 3 7 11 
19 7 9 3 13 18 
17 13 14 0 3 15 
11 1 10 10 3 0 
13 11 16 6 6 5 
16 11 4 18 10 11 
17 14 19 6 8 8 
2 8 15 17 15 4 
7 15 18 2 4 11 
10 7 13 14 5 14 
3 16 6 0 4 17 
16 1 12 2 7 8 
18 4 3 4 14 17 
13 5 19 5 0 2 
0 0 6 10 14 2 
10 13 7 5 3 16 
2 6 17 16 12 12 
9 7 11 2 0 18 
18 6 2 10 13 2 
12 16 2 12 5 8 
1 8 13 18 3 15 
3 19 15 2 6 8 
10 2 15 6 15 5 
9 18 8 2 1 1 
11 17 19 9 19 18 
5 15 0 0 18 2 
17 10 17 4 11 8 
15 11 8 3 2 1 
8 16 13 16 1 9 
7 17 9 7 7 8 
18 12 5 17 12 4 
0 4 14 15 9 12 
14 5 0 10 2 12 
11 15 17 9 5 1 
1 14 11 5 11 8 
4 3 8 6 5 1 
16 13 10 4 8 3 
0 18 8 7 2 1 
17 17 18 4 1 2 
4 2 1 11 14 2 
17 18 17 11 4 9 
9 1 4 7 11 1 
8 13 19 13 2 15 
18 17 5 6 7 19 
10 3 13 0 13 17 
5 13 8 15 2 4 
3 13 17 5 7 12 
16 11 0 15 8 3 
15 17 13 11 5 17 
19 9 7 2 4 6 
12 19 17 18 16 6 
5 1 9 19 3 10 
4 12 10 13 3 19 
0 10 6 6 14 12 
16 3 2 15 1 6 
14 11 1 12 6 4 
14 9 2 10 3 7 
19 11 0 11 8 14 
8 13 14 6 9 7 
19 17 5 1 0 13 
8 14 14 2 16 17 
12 14 5 19 14 10 
18 2 3 11 7 15 
0 3 11 18 3 18 
13 0 12 0 8 19 
4 2 16 8 13 4 
1 9 11 2 16 16 
3 12 16 5 4 14 
13 15 17 17 14 14 
1 3 9 18 14 5 
19 6 9 12 4 15 
4 13 7 3 14 7 
10 14 3 11 9 13 
7 19 13 19 13 6 
0 9 16 9 7 1 
0 18 11 6 14 10 
18 18 6 12 7 14 
12 1 10 1 0 8 
17 5 16 13 16 14 
4 5 15 12 11 5 
19 13 11 13 5 17 
9 18 3 1 17 4 
4 10 7 9 11 13 
12 4 4 13 14 16 
3 0 10 3 9 9 
2 14 14 16 16 14 
16 10 14 3 10 17 
9 19 7 17 0 19 
10 2 3 11 5 5 
4 11 11 10 11 17 
2 13 14 16 2 15 
7 11 19 17 4 2 
7 0 8 14 0 12 
4 3 15 3 1 13 
4 16 14 4 17 11 
13 10 1 7 9 6 
16 7 11 12 12 6 
19 6 17 1 7 10 
12 17 6 12 1 18 
8 1 12 8 12 17 
13 0 5 14 6 7 
14 12 5 19 19 14 
17 3 13 6 14 14 
2 0 5 15 2 8 
6 4 13 2 16 11 
10 8 18 8 12 11 
14 18 4 17 4 9 
1 15 5 0 3 15 
17 14 7 17 0 3 
19 6 1 4 9 15 
3 8 18 6 6 4 
4 5 0 3 19 11 
11 5 17 13 19 10 
7 5 5 5 17 4 
8 3 10 5 8 0 
6 1 9 13 8 17 
0 10 5 19 17 13 
11 5 1 6 12 5 
16 5 11 14 15 4 
1 0 0 15 12 1 
14 1 7 18 17 11 
11 13 0 19 8 8 
5 8 1 11 16 1 
18 11 4 17 9 0 
14 10 19 7 2 6 
14 17 0 7 16 4 
2 7 3 17 19 14 
2 0 17 14 7 11 
4 17 4 10 18 7 
1 15 19 4 15 10 
10 5 16 6 6 19 
13 1 1 7 16 15 
13 19 13 19 9 16 
10 9 10 10 10 1 
10 9 10 2 18 12 
0 9 19 2 13 5 
15 10 2 18 12 4 
4 9 8 8 8 6 
18 4 3 5 18 1 
2 12 4 11 9 15 
14 14 12 16 1 6 
19 1 13 0 1 18 
8 4 6 12 0 17 
3 17 18 11 14 19 
10 3 3 15 12 13 
19 10 11 5 4 9 
7 10 0 1 12 14 
7 8 12 17 6 14 
19 9 1 12 14 8 
6 15 5 2 5 5 
0 10 8 2 12 6 
6 10 12 7 4 15 
11 16 18 1 4 14 
9 1 7 8 19 7 
5 8 4 15 14 19 
19 9 4 4 10 5 
14 16 15 16 2 17 
9 17 3 19 11 16 
18 11 1 11 1 13 
16 4 7 13 5 11 
12 18 6 12 7 9 
19 17 12 4 17 5 
12 15 3 4 3 1 
4 4 1 2 4 4 
18 8 1 19 17 6 
2 17 17 3 17 4 
3 1 17 8 19 0 
7 12 6 13 3 15 
3 7 12 1 10 7 
19 8 9 0 19 15 
4 8 15 17 3 19 
1 2 14 4 2 9 
14 19 14 5 15 16 
18 13 16 19 1 11 
13 6 18 13 9 14 
17 3 12 18 13 16 
13 13 3 5 13 5 
16 7 11 6 11 15 
13 8 1 19 8 10 
3 8 11 19 4 1 
15 11 12 18 13 12 
12 5 12 0 14 9 
14 12 16 10 3 10 
16 11 6 19 18 13 
18 4 9 7 3 16 
12 6 12 2 16 11 
13 0 14 6 7 12 
9 7 7 4 10 7 
0 15 6 10 5 9 
12 2 1 15 3 10 
4 12 8 18 14 14 
16 16 13 2 5 0 
2 8 11 11 18 6 
10 16 17 19 11 0 
1 13 4 2 12 16 
17 14 11 8 15 2 
4 11 7 6 7 9 
15 12 11 15 14 19 
12 1 0 14 8 18 
12 0 13 8 0 4 
10 0 11 8 9 17 
15 2 6 12 3 17 
2 4 19 17 10 0 
1 17 17 6 16 1 
5 2 14 18 2 17 
19 14 7 5 9 3 
17 1 14 19 11 4 
16 14 19 6 12 3 
12 17 6 15 9 18 
9 6 8 0 16 5 
18 16 2 15 1 0 
19 1 7 17 15 13 
10 17 16 7 9 8 
14 9 18 4 14 9 
5 3 12 19 16 12 
13 11 2 5 3 4 
8 15 12 6 11 13 
7 9 8 13 1 9 
2 1 4 19 16 0 
18 7 7 10 17 12 
15 8 4 17 11 6 
3 5 9 15 15 10 
7 15 7 13 2 16 
4 0 8 1 1 3 
2 13 4 10 14 19 
2 8 16 18 1 3 
8 8 15 16 6 4 
8 2 7 10 18 2 
11 18 1 5 5 9 
4 11 0 18 6 12 
13 3 6 14 16 5 
4 4 15 14 15 8 
1 16 6 12 10 12 
11 13 12 9 13 17 
8 18 6 4 11 18 
19 11 8 11 12 15 
14 0 1 9 3 0 
9 13 14 19 13 8 
9 4 18 14 5 4 
4 18 2 11 18 11 
11 19 12 16 17 12 
16 7 10 6 12 17 
3 14 18 11 11 5 
8 4 16 11 10 8 
9 16 0 17 5 4 
16 14 1 17 7 10 
6 11 17 12 12 17 
18 16 0 5 6 0 
18 6 8 14 12 15 
10 3 14 6 19 9 
15 9 5 11 12 12 
8 2 15 13 6 13 
5 5 10 5 8 1 
3 14 4 19 12 9 
8 18 9 12 4 2 
18 2 8 7 15 0 
1 12 19 4 12 17 
10 10 0 0 7 7 
17 1 1 10 0 5 
11 19 19 15 13 16 
2 9 5 8 11 11 
11 1 16 2 17 11 
11 6 10 8 16 3 
5 3 1 3 14 19 
6 5 18 18 11 1 
19 11 10 5 2 10 
0 7 19 3 9 3 
5 16 6 6 16 12 
12 15 9 1 16 8 
0 6 7 15 8 4 
8 2 6 11 8 18 
6 16 18 19 18 3 
11 0 6 8 19 18 
13 19 17 10 6 4 
7 0 19 18 10 3 
0 17 9 17 16 16 
11 6 9 9 2 3 
5 6 17 9 14 14 
3 13 17 13 19 15 
3 11 9 7 18 2 
14 8 13 12 4 9 
10 8 5 5 9 10 
2 13 13 8 19 18 
19 19 16 12 9 5 
6 11 2 0 13 17 
5 18 8 2 17 14 
13 15 10 8 14 14 
8 17 9 15 19 17 
3 2 19 11 14 5 
6 19 4 8 11 0 
4 6 2 9 3 5 
4 17 19 17 0 18 
4 8 17 11 13 13 
2 14 11 5 12 14 
8 16 13 10 13 8 
2 7 12 7 12 12 
11 6 16 11 12 12 
15 19 13 12 14 9 
16 10 18 9 12 3 
2 7 9 19 2 16 
3 6 9 6 0 6 
11 13 10 3 8 10 
14 15 2 16 15 15 
0 15 11 4 11 1 
6 3 3 16 4 14 
14 8 0 7 15 10 
15 13 8 19 0 16 
16 4 2 17 11 12 
17 3 5 7 1 0 
7 1 3 4 18 7 
18 3 13 8 10 11 
5 3 8 8 3 7 
14 18 18 4 1 14 
6 9 19 15 4 6 
13 4 10 0 12 5 
11 7 2 3 15 18 
2 6 13 4 8 8 
11 6 15 3 7 9 
16 16 4 9 14 19 
13 6 1 5 16 7 
12 13 6 2 18 9 
13 17 5 19 13 13 
8 4 10 2 6 9 
4 11 10 5 5 1 
8 17 10 5 6 13 
5 16 2 15 9 7 
13 8 16 2 2 7 
16 15 19 9 6 7 
6 18 10 5 13 19 
12 1 5 5 3 8 
19 9 10 12 0 10 
0 11 18 13 12 9 
6 14 10 8 10 18 
6 8 13 10 12 10 
16 19 13 4 1 5 
7 6 10 0 2 14 
19 5 15 8 7 3 
2 18 17 0 6 10 
2 19 12 5 8 4 
18 10 11 19 6 1 
5 3 12 16 8 16 
4 1 3 14 7 14 
13 1 18 13 14 10 
15 1 19 18 16 17 
15 7 5 9 5 11 
2 19 17 5 5 2 
16 12 13 11 9 8 
17 10 19 0 10 19 
19 3 14 16 18 7 
15 10 18 14 6 12 
19 17 3 16 12 15 
18 16 0 9 12 3 
2 15 8 1 4 12 
12 17 10 6 12 17 
17 19 9 7 9 4 
5 9 12 9 11 5 
5 11 6 7 13 8 
5 5 12 17 16 7 
5 14 5 5 13 9 
7 17 1 7 16 10 
10 15 11 9 15 14 
19 19 19 5 10 0 
9 5 5 10 8 17 
2 16 12 5 15 12 
16 4 8 10 8 19 
19 19 13 9 0 15 
12 16 18 16 6 10 
8 0 16 18 19 2 
16 14 9 3 18 17 
19 5 7 12 7 15 
13 19 3 15 8 9 
16 10 0 0 7 1 
3 11 1 7 14 10 
19 17 15 3 19 2 
2 12 19 19 8 5 
5 19 18 14 17 3 
15 1 9 12 1 19 
15 15 15 10 11 2 
16 16 0 14 16 3 
3 10 9 2 0 15 
7 8 12 4 5 3 
9 5 19 8 11 9 
8 8 10 9 11 2 
18 10 3 17 19 1 
16 15 15 1 19 3 
6 11 14 8 17 13 
12 12 12 1 5 19 
7 18 13 8 3 11 
14 13 12 0 15 10 
2 3 2 19 3 18 
11 2 11 11 9 0 
1 12 15 19 15 3 
5 0 19 11 16 18 
7 4 16 11 3 9 
3 13 18 5 7 19 
5 15 15 0 19 0 
14 12 1 16 8 10 
10 0 15 7 1 15 
11 0 2 19 1 15 
14 16 11 18 3 15 
16 14 9 7 11 11 
18 8 13 6 16 9 
19 0 2 17 12 19 
1 9 17 15 17 5 
8 8 15 14 17 7 
19 12 7 4 9 16 
4 16 1 14 6 7 
12 12 14 0 9 1 
9 1 19 11 17 17 
8 18 15 14 5 18 
17 18 16 12 6 9 
11 3 5 10 2 1 
13 17 0 11 2 18 
5 16 1 8 9 5 
14 14 11 17 17 8 
9 14 9 12 7 8 
17 12 15 4 9 10 
5 18 5 18 10 11 
13 0 18 5 8 13 
7 5 17 19 9 17 
3 16 18 5 0 15 
6 16 4 1 7 10 
13 6 12 5 3 7 
9 19 9 9 12 10 
8 3 7 10 8 12 
0 3 2 17 10 4 
19 6 19 13 5 14 
0 5 18 9 0 1 
7 16 17 0 16 11 
11 13 17 2 19 2 
2 5 19 8 7 8 
19 2 10 16 17 10 
12 9 7 0 10 7 
17 7 10 0 16 6 
5 18 2 11 1 2 
4 10 11 17 16 16 
10 12 9 2 5 8 
7 13 15 16 6 17 
1 14 1 1 6 2 
11 14 3 13 13 12 
18 12 17 5 2 9 
11 19 2 17 4 16 
14 16 17 16 8 16 
4 11 5 19 3 1 
11 11 12 19 3 11 
7 8 5 10 2 19 
15 18 3 11 6 2 
6 17 11 1 10 12 
11 3 12 9 4 13 
14 4 9 11 0 16 
16 16 13 7 2 0 
18 10 8 11 5 3 
7 0 13 2 14 17 
19 18 16 15 12 18 
5 2 11 7 10 1 
7 12 13 12 12 8 
12 12 16 4 11 4 
3 7 14 0 15 17 
12 4 14 5 17 13 
0 5 4 16 18 4 
15 2 6 8 4 11 
16 9 14 13 5 19 
6 12 0 3 1 5 
11 8 0 18 18 14 
4 17 19 5 5 19 
2 1 16 15 9 17 
15 0 13 2 17 18 
9 13 18 7 15 13 
5 17 5 5 15 4 
16 7 12 1 12 15 
7 18 13 16 3 5 
13 11 17 14 6 8 
13 15 2 8 9 14 
19 10 19 8 19 0 
5 12 13 8 1 7 
8 9 13 18 9 13 
4 18 6 0 16 11 
8 12 15 6 14 18 
1 3 14 17 8 12 
7 12 1 9 1 7 
1 5 5 5 17 19 
7 14 10 17 17 11 
4 3 15 15 5 17 
17 15 18 5 0 12 
10 11 4 19 2 0 
16 12 19 10 7 12 
8 12 12 3 3 4 
11 10 11 14 0 9 
11 13 6 0 19 2 
9 4 17 10 12 14 
1 10 4 8 19 10 
2 12 16 10 1 18 
9 8 5 5 5 6 
13 18 19 11 13 11 
6 5 1 10 3 11 
13 7 6 7 4 10 
14 7 8 17 13 17 
18 15 3 19 7 7 
9 2 18 4 19 4 
6 8 7 9 16 1 
10 13 14 16 18 1 
16 17 15 3 16 12 
16 11 14 7 15 17 
14 14 19 6 9 1 
9 17 0 18 16 2 
7 9 17 1 4 17 
11 1 18 4 9 5 
17 8 19 18 5 9 
17 16 13 5 11 7 
19 14 19 3 8 15 
18 17 14 14 19 5 
13 1 0 10 8 10 
15 11 9 11 15 2 
2 9 0 17 15 2 
6 13 9 17 7 9 
18 1 16 8 2 8 
17 11 0 18 17 1 
11 10 2 14 12 9 
12 17 19 15 16 0 
0 0 2 14 3 7 
2 17 5 10 16 11 
19 3 16 1 5 9 
17 9 8 10 6 9 
19 11 19 1 1 3 
19 15 10 13 7 16 
3 3 7 4 19 15 
5 1 8 0 6 4 
14 3 3 12 18 7 
2 12 6 7 9 18 
19 11 17 10 11 12 
0 18 2 1 16 14 
1 8 2 14 11 17 
15 7 18 11 18 0 
17 6 16 11 8 15 
14 19 14 11 11 12 
13 7 15 7 17 0 
1 18 5 17 4 7 
18 16 8 7 3 8 
19 18 15 6 18 4 
14 7 12 1 19 5 
5 3 10 1 1 12 
15 9 1 11 0 5 
18 17 17 11 12 4 
19 16 1 11 11 9 
15 7 19 12 14 11 
11 11 2 9 13 16 
16 8 0 15 12 2 
15 15 2 17 15 3 
2 2 14 13 4 1 
8 19 18 7 18 18 
3 15 6 18 3 11 
17 13 10 5 16 2 
16 3 17 2 8 1 
4 14 7 11 8 15 
16 18 0 16 18 19 
2 19 8 15 16 4 
1 9 1 8 3 6 
9 5 3 6 8 11 
6 13 14 16 0 3 
14 0 19 18 4 11 
9 14 18 11 9 4 
2 14 9 0 2 6 
13 18 13 2 13 16 
4 17 14 17 12 16 
18 15 6 6 12 1 
6 12 11 13 2 18 
14 2 11 9 1 12 
4 9 19 16 11 10 
3 6 19 13 10 2 
11 0 13 4 14 11 
10 12 1 0 9 11 
18 12 13 10 19 17 
1 11 14 9 18 12 
3 1 15 9 2 14 
11 17 5 7 18 6 
3 19 18 14 9 4 
10 13 5 14 11 18 
5 14 5 19 11 15 
5 1 0 17 9 16 
15 6 11 17 5 19 
7 15 19 13 1 11 
1 3 8 4 4 8 
2 2 13 14 9 2 
16 13 9 12 19 13 
16 11 1 12 2 12 
12 16 7 7 14 5 
0 11 5 9 5 14 
4 2 16 4 14 18 
18 15 14 1 19 6 
15 7 3 11 4 15 
13 17 14 6 8 15 
12 5 3 9 6 14 
7 10 4 0 16 8 
18 16 14 15 2 3 
18 7 15 18 8 2 
19 2 1 3 11 1 
11 14 11 14 4 0 
15 10 7 7 0 7 
16 4 11 1 5 6 
9 7 0 18 5 14 
9 5 1 0 1 4 
0 13 2 4 1 17 
13 11 8 0 2 13 
11 2 11 5 16 8 
2 14 6 16 14 9 
15 8 4 6 18 5 
6 3 0 11 8 6 
2 17 7 4 0 8 
1 3 5 17 13 5 
6 15 6 0 16 6 
0 15 5 0 14 16 
5 10 1 1 12 6 
6 4 7 7 6 17 
11 1 19 6 16 0 
18 1 3 3 12 8 
15 4 0 8 4 6 
4 14 0 11 2 9 
4 7 9 11 3 13 
4 16 14 1 19 9 
12 14 6 3 3 19 
14 13 6 6 18 13 
16 10 8 6 12 12 
1 1 13 3 18 0 
15 18 15 4 15 16 
13 12 14 10 0 14 
2 0 16 15 15 17 
9 13 17 3 5 1 
2 0 10 13 14 12 
5 14 4 7 0 3 
10 4 4 4 6 3 
7 14 4 17 2 15 
13 10 5 13 6 11 
13 1 7 4 3 3 
7 16 15 12 0 10 
9 4 5 8 15 9 
18 6 17 14 19 19 
16 10 3 0 12 5 
11 3 1 9 11 17 
4 10 12 3 0 10 
16 4 13 16 13 19 
1 9 6 6 9 17 
10 7 0 9 8 6 
17 15 3 6 13 4 
2 19 10 10 17 15 
14 16 16 5 16 3 
2 6 6 8 7 17 
9 10 1 4 15 3 
6 1 19 9 15 0 
17 8 17 2 19 10 
12 13 14 17 8 8 
16 17 1 9 14 15 
18 11 18 12 2 1 
14 18 13 19 0 7 
17 1 13 19 19 19 
4 0 15 3 15 3 
15 19 7 16 13 3 
15 16 8 15 14 6 
4 2 7 19 19 13 
12 10 0 15 19 1 
5 2 5 14 13 17 
16 17 15 7 0 19 
4 7 2 17 15 13 
11 9 3 9 3 12 
0 13 15 13 10 10 
11 16 5 1 16 9 
3 12 15 2 14 11 
2 18 13 19 0 17 
12 14 11 10 5 0 
2 9 5 15 0 4 
6 12 19 12 4 8 
5 14 13 12 14 17 
9 4 10 17 2 12 
5 18 8 1 4 19 
0 0 6 9 7 18 
0 8 16 15 15 17 
7 6 9 11 2 6 
11 15 0 16 5 18 
14 12 7 1 7 3 
2 0 18 3 3 13 
9 1 11 9 1 7 
3 1 16 1 10 1 
15 17 8 6 1 4 
6 18 9 8 8 11 
7 14 6 8 1 0 
3 10 3 11 14 14 
6 6 4 1 3 14 
15 1 6 13 19 2 
6 9 11 5 15 10 
13 10 17 19 10 0 
14 3 6 1 14 12 
11 3 13 11 7 4 
10 17 4 6 6 11 
15 17 4 4 10 11 
3 11 14 1 16 16 
14 13 17 12 8 9 
5 4 17 6 16 14 
9 18 6 7 1 17 
12 16 8 11 6 18 
2 18 15 16 1 14 
7 9 6 1 1 15 
15 5 13 0 9 19 
14 4 7 19 11 9 
11 1 8 17 9 2 
1 19 11 11 15 8 
14 6 9 4 15 16 
8 18 0 3 3 18 
17 0 2 13 5 10 
15 5 16 7 16 15 
15 4 19 8 5 15 
6 13 19 9 7 18 
15 16 4 8 4 17 
0 19 7 9 9 8 
13 9 14 6 10 12 
12 4 12 1 1 7 
8 0 19 13 4 15 
3 6 11 10 3 16 
12 19 0 0 10 18 
18 6 7 18 6 15 
12 18 0 12 17 12 
15 13 1 14 15 9 
1 2 10 14 15 19 
10 0 11 17 11 16 
17 17 2 1 0 3 
15 10 13 7 3 14 
1 14 17 11 11 11 
10 13 14 8 5 0 
6 13 19 8 11 17 
5 14 5 19 1 17 
5 7 6 6 14 14 
17 1 3 11 11 8 
1 8 4 17 18 7 
3 0 7 7 1 13 
15 0 11 12 16 5 
9 8 4 10 2 1 
17 16 12 4 18 15 
11 12 5 0 17 17 
6 5 12 2 6 12 
8 14 9 4 11 19 
10 13 11 9 8 1 
15 3 3 15 17 5 
0 7 8 3 7 7 
18 8 5 11 15 19 
14 7 9 17 19 11 
18 9 5 14 16 1 
18 4 0 17 8 16 
8 9 18 3 1 7 
6 17 10 6 17 1 
18 13 14 15 16 11 
3 11 19 10 13 18 
13 17 1 2 6 7 
3 8 6 14 12 9 
10 0 4 15 17 7 
13 16 4 3 16 15 
12 10 19 6 18 12 
5 16 17 17 18 2 
6 17 14 17 12 11 
7 0 7 15 1 0 
16 9 2 16 17 18 
6 3 15 3 2 9 
16 13 12 19 8 7 
8 15 0 19 12 6 
16 10 17 6 18 2 
13 10 9 19 5 6 
13 4 3 4 12 13 
18 10 12 16 19 19 
4 2 14 17 12 4 
2 14 0 13 16 9 
0 18 9 14 2 4 
14 19 1 1 11 18 
18 4 16 8 0 16 
1 16 1 16 13 15 
0 6 17 6 3 15 
15 2 2 18 16 10 
10 8 12 4 6 8 
13 6 9 11 8 1 
1 9 10 3 1 17 
11 6 14 14 14 19 
15 16 18 14 17 6 
5 19 4 17 12 10 
0 1 14 12 1 12 
16 12 14 12 8 0 
15 7 4 6 7 7 
14 14 11 4 9 12 
0 13 12 5 6 9 
16 19 0 14 4 9 
14 13 7 11 10 15 
2 13 14 18 3 19 
15 18 7 14 19 19 
6 2 15 7 5 19 
8 15 12 1 2 7 
15 6 19 0 8 13 
7 19 5 8 18 14 
5 10 8 5 0 1 
13 12 3 17 13 17 
10 11 18 13 17 3 
0 12 9 0 1 18 
1 15 18 13 2 10 
18 12 6 5 14 17 
3 2 16 4 3 19 
18 17 8 17 3 17 
8 17 12 5 16 12 
12 15 13 1 16 14 
17 13 4 13 8 9 
11 5 10 19 6 16 
12 4 1 6 11 12 
8 1 18 10 1 9 
11 9 13 9 1 4 
4 3 11 9 5 0 
15 9 19 18 14 1 
11 4 10 16 2 14 
0 17 19 14 10 7 
8 11 9 16 6 12 
0 11 3 9 11 6 
4 19 1 17 4 13 
5 2 7 6 12 2 
15 13 7 8 6 1 
5 3 14 10 5 18 
12 0 13 7 14 1 
10 6 15 0 13 4 
2 1 13 8 12 3 
10 7 8 2 7 16 
1 16 14 4 13 19 
2 12 15 2 10 2 
7 9 2 9 19 14 
3 5 1 14 10 10 
5 7 6 12 14 13 
8 14 11 2 2 6 
10 16 3 0 5 12 
4 17 19 16 16 15 
3 13 11 14 17 3 
19 15 0 18 18 3 
0 3 2 2 0 17 
4 1 12 12 3 2 
10 16 9 19 1 15 
13 14 3 9 12 17 
18 4 15 7 14 18 
14 4 3 0 8 0 
13 2 10 17 3 18 
2 13 17 1 10 12 
16 11 1 6 14 8 
0 13 3 14 5 13 
19 14 19 15 1 8 
8 19 14 13 2 13 
19 17 16 15 1 15 
18 7 17 4 15 3 
17 7 7 4 4 15 
13 9 1 15 7 16 
3 15 6 3 15 8 
3 16 11 7 9 17 
16 17 1 3 2 12 
9 1 12 8 5 10 
7 16 0 0 15 17 
2 11 13 14 9 15 
17 14 8 18 15 18 
16 0 3 19 13 9 
3 11 16 15 9 3 
15 0 4 19 10 0 
5 18 0 14 12 12 
17 2 0 8 11 9 
2 18 18 18 3 11 
18 6 5 0 0 9 
13 5 4 15 0 3 
6 11 8 17 11 16 
14 3 13 9 2 8 
14 17 13 0 15 18 
14 13 18 19 6 7 
1 2 16 5 1 10 
12 6 12 10 10 12 
6 0 18 10 4 10 
19 11 2 13 3 10 
13 18 3 1 16 1 
8 17 12 15 7 3 
0 4 3 14 1 7 
13 17 1 15 7 19 
11 15 5 14 6 3 
15 12 0 0 14 16 
16 13 4 16 12 15 
15 13 9 7 4 10 
19 13 11 18 17 5 
12 4 5 1 13 13 
17 19 6 7 8 19 
6 19 5 15 13 8 
11 4 5 7 4 14 
9 15 19 7 12 18 
1 0 3 12 16 7 
12 11 18 10 19 16 
9 3 5 13 3 13 
13 3 7 1 11 7 
12 16 5 16 16 5 
10 13 17 6 17 7 
5 1 19 15 0 16 
13 3 16 13 13 5 
1 1 7 19 19 17 
12 2 5 18 15 12 
10 12 7 9 5 4 
7 17 16 2 18 14 
11 16 10 8 12 5 
7 0 14 6 1 9 
3 18 13 13 13 12 
4 12 3 2 0 17 
