WEIGHTS : 0.012012012012012012 0.21021021021021022 0.25225225225225223 0.2702702702702703 0.2552552552552553
BOUNDARY : 2
[39, 75] [23, 68] [49, 96] [53, 94] [5, 40] 
[45, 48] [39, 45] [62, 73] [59, 79] [8, 23] 
LAMBDA : 0.47541500252773383
ADMISSION : 2 1 0 1 1 2 0 2 1 1 2 1 1 1 1 0 0 0 1 0 0 0 0 1 0 1 1 0 0 0 1 1 0 2 0 1 1 1 0 0 0 1 2 1 2 1 0 1 1 1 2 0 1 1 2 1 0 2 0 0 0 0 0 1 0 0 1 1 1 1 1 1 1 0 1 0 1 0 0 0 1 0 1 1 0 0 1 0 1 0 0 0 1 1 0 1 2 0 1 0 1 1 0 0 0 1 1 0 0 0 1 0 1 0 1 0 1 0 1 0 0 1 1 0 1 1 0 0 0 0 2 1 0 0 2 0 0 0 1 1 0 1 2 1 0 0 0 1 0 1 1 1 0 0 0 1 0 1 0 0 0 0 0 2 1 0 0 0 1 1 1 1 1 0 0 0 0 0 0 0 1 0 1 0 0 1 2 2 0 0 0 0 2 0 0 0 2 2 0 1
52 68 71 42 16 
88 0 88 53 32 
30 75 47 97 35 
72 11 41 83 24 
21 67 48 70 66 
95 93 69 62 3 
97 67 35 26 1 
73 57 70 89 17 
5 97 8 89 18 
37 38 98 82 49 
23 18 67 59 63 
55 13 84 0 40 
43 98 95 28 39 
76 52 98 63 93 
23 32 54 91 64 
17 8 37 15 95 
44 15 49 33 53 
36 96 52 51 99 
70 24 4 80 49 
70 81 98 66 65 
32 42 36 37 19 
99 12 83 6 84 
11 96 39 46 80 
55 29 18 68 94 
29 93 21 57 48 
71 67 56 73 41 
29 3 5 84 31 
9 91 11 9 30 
93 14 25 15 51 
27 53 21 22 99 
36 49 61 84 69 
36 86 91 31 16 
78 13 41 26 90 
72 83 73 82 22 
20 69 60 47 81 
5 26 13 65 51 
6 26 88 55 76 
93 19 84 57 10 
14 8 38 37 75 
29 67 9 2 83 
68 18 74 32 47 
37 35 9 58 31 
18 94 33 70 21 
6 59 56 84 7 
30 31 29 73 8 
40 61 56 71 69 
51 28 10 16 91 
34 99 56 47 34 
10 85 59 84 80 
66 84 48 85 12 
20 68 89 74 11 
65 6 86 13 72 
41 25 14 86 39 
5 34 50 87 59 
60 43 10 72 17 
69 49 79 80 12 
77 24 62 26 73 
48 44 77 64 59 
98 86 45 37 51 
53 10 77 25 87 
70 9 14 37 89 
91 86 47 30 75 
0 57 14 51 57 
53 36 34 93 78 
24 91 26 98 17 
53 69 3 4 21 
4 34 82 88 35 
2 42 11 80 98 
27 18 87 84 29 
26 88 69 30 39 
58 3 61 82 25 
60 90 61 78 54 
99 20 81 24 22 
65 31 48 1 48 
30 16 64 92 52 
42 82 61 10 54 
25 32 86 81 81 
87 28 36 6 73 
60 80 87 47 67 
82 57 98 32 84 
16 2 61 0 27 
49 83 50 12 54 
31 40 80 80 35 
58 56 62 81 0 
88 34 82 0 71 
10 2 94 21 63 
50 55 24 4 11 
97 54 0 22 86 
14 95 41 82 16 
36 4 35 58 0 
86 16 56 16 63 
77 26 71 97 74 
78 97 95 62 67 
97 38 94 61 99 
97 70 35 62 43 
96 8 90 77 57 
53 34 73 67 60 
33 9 62 52 80 
42 26 2 40 16 
70 47 68 37 76 
49 65 83 71 75 
14 56 86 80 36 
20 53 41 44 29 
70 99 60 29 64 
50 19 13 30 32 
80 90 7 88 23 
90 46 42 58 51 
40 9 45 68 42 
2 62 64 32 97 
36 10 6 72 98 
9 99 81 17 26 
11 81 63 44 3 
29 21 93 68 83 
15 42 55 23 72 
70 86 84 86 50 
7 94 25 65 60 
74 59 12 85 77 
67 94 36 78 79 
60 52 52 28 10 
75 17 53 15 52 
85 67 77 14 79 
50 3 49 13 22 
66 45 61 57 6 
4 20 6 32 93 
42 23 94 24 32 
21 63 54 87 89 
98 91 99 63 46 
59 12 75 34 45 
15 66 22 3 95 
7 31 86 13 79 
5 12 65 67 51 
55 26 7 64 60 
50 46 46 22 71 
82 32 23 11 33 
44 74 69 36 19 
38 0 98 47 41 
7 87 45 29 49 
64 1 62 28 83 
37 43 38 84 31 
89 57 16 87 3 
5 52 16 35 50 
63 69 84 62 77 
28 11 63 97 13 
16 64 83 0 21 
57 64 13 12 91 
20 39 1 47 84 
43 84 53 18 0 
71 67 76 61 60 
43 83 51 40 85 
1 33 73 56 63 
84 12 49 28 30 
19 42 95 91 40 
39 76 16 13 62 
20 50 3 12 48 
63 62 56 12 73 
29 67 77 5 12 
62 4 79 10 49 
81 95 84 6 11 
52 6 48 2 23 
70 71 47 53 76 
0 58 91 19 82 
15 44 86 33 0 
66 75 97 42 26 
5 46 27 77 13 
71 13 64 83 27 
38 94 7 87 44 
8 49 2 47 83 
84 88 2 20 10 
86 21 78 84 85 
78 5 38 57 17 
11 24 81 79 46 
69 35 46 19 9 
12 49 27 85 33 
61 38 32 28 63 
5 27 27 18 97 
76 79 16 87 71 
37 91 15 36 85 
78 55 9 5 53 
6 99 70 96 75 
59 10 56 34 44 
51 65 44 71 67 
97 31 60 5 78 
9 43 28 84 91 
82 25 74 4 63 
34 27 28 37 14 
12 16 89 29 14 
53 42 98 74 57 
47 79 73 67 33 
84 54 96 16 46 
80 35 84 40 61 
24 40 40 50 60 
16 15 3 20 9 
35 64 78 69 14 
2 11 8 47 38 
62 96 13 5 30 
61 91 14 15 49 
74 46 68 9 14 
78 57 45 77 20 
20 25 52 46 3 
24 78 93 56 65 
